MP2
…
top_100_data <- top_100_data |>
  mutate(text = na_if(text, "")) |>
  na.omit() |>
  group_by(title) |>
  mutate(line_num = row_number()) |>
  ungroup()

print("Combined data frame for all books:")

[1] "Combined data frame for all books:"

print(top_100_data)

# A tibble: 340,792 × 5
   gutenberg_id text                       title              author    line_num
          <int> <chr>                      <chr>              <chr>        <int>
 1           33 "The Scarlet Letter"       The Scarlet Letter Hawthorn…        1
 2           33 "by Nathaniel Hawthorne"   The Scarlet Letter Hawthorn…        2
 3           33 "Contents"                 The Scarlet Letter Hawthorn…        3
 4           33 " THE CUSTOM-HOUSE"        The Scarlet Letter Hawthorn…        4
 5           33 " THE SCARLET LETTER"      The Scarlet Letter Hawthorn…        5
 6           33 " I. THE PRISON DOOR"      The Scarlet Letter Hawthorn…        6
 7           33 " II. THE MARKET-PLACE"    The Scarlet Letter Hawthorn…        7
 8           33 " III. THE RECOGNITION"    The Scarlet Letter Hawthorn…        8
 9           33 " IV. THE INTERVIEW"       The Scarlet Letter Hawthorn…        9
10           33 " V. HESTER AT HER NEEDLE" The Scarlet Letter Hawthorn…       10
# ℹ 340,782 more rows
…
